{
    "$schema": "../../node_modules/ng-packagr/ng-package.schema.json",
    "dest": "../../dist/quest-roadmap-generator",
    "lib": {
        "entryFile": "src/public-api.ts"
    },
    "allowedNonPeerDependencies": [
      "@angular/fire",
      "@dev-to-be-curious/rand-svg-path-generator",
      "firebase",
      "phaser"
    ]
}
