{
	"info": {
		"_postman_id": "bfb2068b-9aad-4038-9cc2-3e7332f6a9e2",
		"name": "CVGamifie.API.V1",
		"description": "Testing api v1",
		"schema": "https://schema.getpostman.com/json/collection/v2.1.0/collection.json"
	},
	"item": [
		{
			"name": "TrainingCourses",
			"item": [
				{
					"name": "GetOneCompleteTrainingCourse",
					"event": [
						{
							"listen": "test",
							
							"script": {
								"exec": [
									"let item = null;\r",
									"const isExpected = pm.iterationData.get('expected') == \"ok\";\r",
									"let statusCode = isExpected ? 200 : 404; \r",
									"\r",
									"if (isExpected) {\r",
									"    item = pm.response.json();\r",
									"}\r",
									"\r",
									"pm.test(\"should return \" + statusCode, () => {\r",
									"    pm.response.to.have.status(statusCode);\r",
									"\r",
									"    if (isExpected) {\r",
									"        pm.response.to.be.json;\r",
									"    }\r",
									"});\r",
									"\r",
									"const Ajv = require('ajv');\r",
									"const ajv = new Ajv({ logger: console, allErrors: true });\r",
									"\r",
									"const schema = {\r",
									"    type: \"object\",\r",
									"    required: [\r",
									"        \"id\",\r",
									"        \"title\",\r",
									"        \"description\"\r",
									"    ],\r",
									"    properties: {\r",
									"        id: {\r",
									"            type: \"number\"\r",
									"        },\r",
									"        title: {\r",
									"            type: \"string\"\r",
									"        },\r",
									"        description: {\r",
									"            type: \"string\"\r",
									"        }\r",
									"    }\r",
									"};\r",
									"\r",
									"if (isExpected) {\r",
									"    pm.test('should get the right schema', () => {\r",
									"        pm.expect(ajv.validate(schema, item)).to.be.true;\r",
									"        \r",
									"    });\r",
									"}\r",
									"\r",
									"\r",
									"\r",
									""
								],
								"type": "text/javascript"
							}
						}
					],
					"request": {
						"method": "GET",
						"header": [],
						"url": {
							"raw": "{{url}}/trainingCourse/{{id}}",
							"host": [
								"{{url}}"
							],
							"path": [
								"trainingCourse",
								"{{id}}"
							]
						}
					},
					"response": []
				}
			]
		}
	],
	"auth": {
		"type": "bearer",
		"bearer": [
			{
				"key": "token",
				"value": "",
				"type": "string"
			}
		]
	}
}